…
``` r
base_url = "https://www.amazon.com/product-reviews/B00005JNBQ/ref=cm_cr_arp_d_viewopt_rvwer?ie=UTF8&reviewerType=avp_only_reviews&sortBy=recent&pageNumber="

urls = str_c(base_url, 1:5)

bind_rows(
  get_page_reviews(urls[1]),
  get_page_reviews(urls[2]),
  get_page_reviews(urls[3]),
  get_page_reviews(urls[4]),
  get_page_reviews(urls[5]))
```

    ## # A tibble: 50 × 3
    ##    title                       stars       text                                 
    ##    <chr>                       <chr>       <chr>                                
    ##  1 I Just everyone to know th… 5.0 out of… "\n  VOTE FOR PEDRO !!!!! LOL\n"     
    ##  2 the cobweb in his hair dur… 5.0 out of… "\n  5 stars for being the best wors…
    ##  3 Best quirky movie ever      5.0 out of… "\n  You all know the awesome movie …
    ##  4 Classic Film                5.0 out of… "\n  Had to order this for our young…
    ##  5 hehehehe                    5.0 out of… "\n  goodjobboys\n"                  
    ##  6 Painful                     1.0 out of… "\n  I think I sneezed during the mo…
    ##  7 GRAND                       5.0 out of… "\n  GRAND\n"                        
    ##  8 Hello, 90s                  5.0 out of… "\n  So nostalgic movie\n"           
    ##  9 Cult Classic                5.0 out of… "\n  Watched it with my older grandc…
    ## 10 Format was inaccurate       4.0 out of… "\n  There was an option to choose b…
    ## # … with 40 more rows
